62.3923   25.5018   47.0371   97.0455    7.6439   51.5679
82.5415   90.9050   88.6326   59.7007   79.1415   54.2582
3.5023   89.4560   11.4028   24.0227   36.5384   80.8484
40.5475   39.8517   44.2541    7.0295   58.5099   79.3686
24.9669   62.5020   65.9548   30.0041   18.3337   50.1867
48.0897   56.7597   29.4773   81.3545    7.6919   27.6632
88.0839   89.4512   95.0368    7.6710   15.3663   11.9665
28.0685   21.4166   69.4286   35.4473   82.6876   88.6598
59.9143    0.3859   20.6807   13.2011   30.0957   97.0289
2.6226   88.0581   55.4762   15.8180   38.3884   94.2526
15.5199   23.5122   87.9278    6.2147   65.0749   63.8128
83.3911   24.4865   55.7858   70.1843   81.7371    9.0590
19.4893   64.0917   75.2334    8.6482   76.6266    7.4708
82.9788   30.4524   89.4901   61.6787   37.4176   18.2451
33.8075   82.5621   84.1844   17.3772   18.9862    3.1688
67.1117   88.3689   13.0857   65.1401   64.6502   72.4936
5.2366   94.5373   18.9154   49.8696    0.3605   14.4159
73.4309   39.0795   15.3640   28.4511   28.2888   63.5927
49.9482   80.1320    2.8902   83.0560   63.8601   78.9848
94.3300   15.7113    0.9085   81.8360   59.2075   56.6253
28.9772   62.5165   59.6452   93.8169   32.5289   37.7414
37.6560   69.8985   60.9049    0.0326   98.8951   82.1586
11.3755    8.5869   91.8923   64.0389   12.3236   30.4881
96.4851   53.1180   73.3574    0.7356   73.5877   31.9373
43.2512   88.8567   30.1147   10.6421   15.6617   78.4980
8.4563   26.3666   49.5574   10.6794   43.4647   50.3736
71.6676   23.4786   25.8163   36.7109   83.2243   26.0997
50.6787   83.9657   73.2854   23.9608   35.9910   73.2476
32.8088   49.5540   11.6761   34.6140    7.6238   16.2950
75.3524   15.2366   74.6042   24.9620   55.6926   92.1075
83.6006   23.0768   80.9789   38.7064   27.3930   22.2223
25.3716   65.7954   74.5234   42.1038   13.2055    8.3609
53.4425   56.2948   33.7143   64.0077   69.9655    7.3702
43.5165   29.1829   58.4325   78.7553   48.5905   76.9552
15.7704   62.2305   46.8952   26.9994   18.2716   81.7677
60.0481   71.5905    8.7265   84.3982   10.1215   74.0426
93.7451   28.0731   82.8717   74.0468   20.1584   75.8249
10.7759   41.2273   68.5945   82.6102   13.4746   96.1195
89.9981   36.2206   26.7325   18.2192   32.3789   46.6425
55.0465   78.1392   96.9484    6.5436   95.0545   78.6996
42.7357   13.5487   18.3774   61.0350   53.2131   42.2568
15.2381   90.2070   29.9941   70.1553   24.7686   94.3730
24.7546   28.9636   41.1185   11.1618   43.7276    0.1314
44.7369   49.9558   23.6489    9.5824   66.9088   98.1268
53.2783   78.3590   19.5055   59.7834   54.7696   57.0194
35.4651   67.7062   70.5379   81.2233   60.9054   34.6471
77.3115   14.9812   18.0548   81.4578   86.3135   55.7503
88.1681   69.6619   52.2333    8.9437   38.0696   29.9785
73.4092   12.9013   29.6172   73.1279   74.8956   15.9073
40.6432   94.5946   46.2782   90.3857   15.6697   66.5256
60.4179   88.6412   92.5232   45.2232    5.8124   68.4203
64.1105   51.5005   21.5889    7.0688   33.9707   79.2409
12.7467   67.9409    0.1009   24.1278   81.7176   34.8624
49.6192   97.6793   90.6606   73.1865   37.7548   25.0075
31.0469   12.5460   68.0042    4.0492   97.2605   34.5003
57.8574   75.2243   51.4952   42.4523   60.5319   32.8633
94.3609   82.7052   52.2069   54.0215   33.8236   92.7486
42.6940   78.1430   10.2919   95.3828   92.7984   75.6072
3.3128   19.0883   99.6880   20.8906   89.8425   28.8239
92.9434   42.8641   35.8969   11.6332   85.0706   60.6180
92.4982    1.4457   62.5243   64.6220   25.6792   76.6029
35.8307   32.5285   39.3367   10.8411   28.5496   84.6152
25.9989   13.4702    0.7662   98.3497   77.9947   90.1981
78.6860   45.0517   54.5285   24.8344   70.1395   59.5707
51.1582   57.2275   50.9110   60.6356   49.2512    6.8536
56.2527   79.2023   24.6779   81.6695   96.7668   21.8043
68.4794   41.9737    4.5395   83.0054   47.6161   86.9408
9.2397   53.2537   84.1730   48.9039   99.4906   41.4218
87.2579   92.5704    4.8250   76.0728   49.0579   66.1209
94.2938   89.9082   31.6320   91.5108   50.3453   78.3485
9.6594   54.4833   78.3419   90.0975   76.8773   24.7886
84.5883   90.1124   97.2400   21.4238   38.8084   55.4425
90.9396    5.1827   58.6464   54.7061   45.3259   22.9585
1.1341   80.8603   77.8044   78.4709   13.2854    0.6913
52.3683   33.4905   72.7697   19.4441   75.8506   76.6639
65.0345   22.8683   65.0987   74.6889   56.5237    2.1833
38.5145   82.2402   66.4615   47.5558   64.8637   39.3103
64.9302   34.8235   93.8780   58.3259   79.8058   25.2540
76.2853   16.5471   53.5081   26.0548   22.0448   20.4217
57.5686    2.8134   39.8440    8.4822   85.7891   66.2279
63.1919   95.5370   67.0458   29.8133   90.4729   91.4742
27.8204   68.0291   44.0534   91.7129   29.2020    0.6903
83.9836   86.0562   13.2874   47.0518   72.5870   74.6423
42.6835   93.9094   43.9204   26.9468   33.9446   79.9671
63.1622   68.0194   54.7643   76.2970   27.2681   90.7799
83.3467   91.7424   39.5136   77.2172   17.0275   97.4574
27.0185   25.6692   39.8272    2.1300   66.4018   11.9863
40.0801   88.5618   75.1349   87.9986   53.5852   51.8970
55.4255   92.0043   52.2350   79.8170   82.9109   82.1975
44.3865   30.0063   49.0433   32.4165   26.7362   63.7023
9.0384    7.3391    8.8679   66.9044   17.6156   95.3910
74.4381   76.7399   25.0852   29.6294   43.1186   94.6926
3.2615    8.4952   44.7559   92.9952   47.5655   96.6605
42.9743   72.8764   63.7961   28.1960   78.5221    6.7344
3.7262   44.7890   70.9445   16.8880   13.0652   43.7535
97.5798   65.1249   99.2620   74.5167    5.1356   32.0840
52.2340   16.9502   93.2195   47.7134   62.7506   13.4052
90.9630   53.1449    9.2229   65.3445    2.9088   13.4585
38.3248   63.3801   95.3540   96.6576   13.6195   80.5948
88.4452    1.4096   16.2796   31.3027   69.4556   52.4764
